\relax 
\providecommand\hyper@newdestlabel[2]{}
\providecommand\HyperFirstAtBeginDocument{\AtBeginDocument}
\HyperFirstAtBeginDocument{\ifx\hyper@anchor\@undefined
\global\let\oldcontentsline\contentsline
\gdef\contentsline#1#2#3#4{\oldcontentsline{#1}{#2}{#3}}
\global\let\oldnewlabel\newlabel
\gdef\newlabel#1#2{\newlabelxx{#1}#2}
\gdef\newlabelxx#1#2#3#4#5#6{\oldnewlabel{#1}{{#2}{#3}}}
\AtEndDocument{\ifx\hyper@anchor\@undefined
\let\contentsline\oldcontentsline
\let\newlabel\oldnewlabel
\fi}
\fi}
\global\let\hyper@last\relax 
\gdef\HyperFirstAtBeginDocument#1{#1}
\providecommand\HyField@AuxAddToFields[1]{}
\providecommand\HyField@AuxAddToCoFields[2]{}
\newlabel{eq:de}{{1}{1}{}{equation.0.1}{}}
\newlabel{eq:tf:1}{{2}{1}{}{equation.0.2}{}}
\@writefile{lof}{\contentsline {figure}{\numberline {1}{\ignorespaces Step response of the transfer function in Eq. (\ref  {eq:tf:1})}}{2}{figure.1}}
\newlabel{f:step1}{{1}{2}{Step response of the transfer function in Eq. (\ref {eq:tf:1})}{figure.1}{}}
\@writefile{lof}{\contentsline {figure}{\numberline {2}{\ignorespaces Code written to generate plot in Figure \ref  {f:step1}}}{2}{figure.2}}
\newlabel{f:code:1b}{{2}{2}{Code written to generate plot in Figure \ref {f:step1}}{figure.2}{}}
\@writefile{lol}{\contentsline {lstlisting}{1b.m}{2}{lstlisting.-1}}
\newlabel{eq:t:angle}{{4}{3}{}{equation.0.4}{}}
\@writefile{lof}{\contentsline {figure}{\numberline {3}{\ignorespaces Block diagram of the closed-loop system}}{4}{figure.3}}
\newlabel{f:block-diagram}{{3}{4}{Block diagram of the closed-loop system}{figure.3}{}}
\newlabel{eq:closed-loop-t}{{6}{5}{}{equation.0.6}{}}
\newlabel{eq:omega_n}{{7}{5}{}{equation.0.7}{}}
\newlabel{eq:zeta}{{8}{5}{}{equation.0.8}{}}
\newlabel{eq:overshoot}{{9}{5}{}{equation.0.9}{}}
\@writefile{lof}{\contentsline {figure}{\numberline {4}{\ignorespaces Step response for the position servo with $K=0.58$}}{6}{figure.4}}
\newlabel{f:1k}{{4}{6}{Step response for the position servo with $K=0.58$}{figure.4}{}}
\@writefile{lof}{\contentsline {figure}{\numberline {5}{\ignorespaces Step response with $K=0.5$}}{6}{figure.5}}
\newlabel{f:1l1}{{5}{6}{Step response with $K=0.5$}{figure.5}{}}
\@writefile{lof}{\contentsline {figure}{\numberline {6}{\ignorespaces Step response with $K=1$}}{7}{figure.6}}
\newlabel{f:1l2}{{6}{7}{Step response with $K=1$}{figure.6}{}}
\@writefile{lof}{\contentsline {figure}{\numberline {7}{\ignorespaces Step response with $K=2$}}{7}{figure.7}}
\newlabel{f:1l3}{{7}{7}{Step response with $K=2$}{figure.7}{}}
\@writefile{lof}{\contentsline {figure}{\numberline {8}{\ignorespaces Generated Root Locus plot}}{9}{figure.8}}
\newlabel{f:root-locus}{{8}{9}{Generated Root Locus plot}{figure.8}{}}
\newlabel{eq:closed-loop-t-f}{{10}{9}{}{equation.0.10}{}}
\@writefile{lof}{\contentsline {figure}{\numberline {9}{\ignorespaces Bode plots for various values of $K$}}{10}{figure.9}}
\newlabel{f:bode-p}{{9}{10}{Bode plots for various values of $K$}{figure.9}{}}
\@writefile{lof}{\contentsline {figure}{\numberline {10}{\ignorespaces Bode plot of proportional controller with $K=4$, open loop}}{11}{figure.10}}
\newlabel{f:bode-k-4}{{10}{11}{Bode plot of proportional controller with $K=4$, open loop}{figure.10}{}}
\newlabel{eq:form-lead}{{11}{11}{}{equation.0.11}{}}
\newlabel{eq:find-ta}{{12}{11}{}{equation.0.12}{}}
\newlabel{eq:find-lead-phase}{{13}{11}{}{equation.0.13}{}}
\@writefile{lof}{\contentsline {figure}{\numberline {11}{\ignorespaces Open loop Bode plot of Lead Controller followed by Proportional Controller}}{12}{figure.11}}
\newlabel{f:bode-open-lead}{{11}{12}{Open loop Bode plot of Lead Controller followed by Proportional Controller}{figure.11}{}}
\newlabel{eq:final:tf}{{14}{12}{}{equation.0.14}{}}
\@writefile{lof}{\contentsline {figure}{\numberline {12}{\ignorespaces Closed loop step response with the Lead Controller}}{13}{figure.12}}
\newlabel{f:closed-step-lead}{{12}{13}{Closed loop step response with the Lead Controller}{figure.12}{}}
\newlabel{eq:ll}{{16}{13}{}{equation.0.16}{}}
\@writefile{lot}{\contentsline {table}{\numberline {1}{\ignorespaces Quantitative performance results of various controllers}}{13}{table.1}}
\newlabel{t:results}{{1}{13}{Quantitative performance results of various controllers}{table.1}{}}
\@writefile{lof}{\contentsline {figure}{\numberline {13}{\ignorespaces Bode plot of closed loop Lead Controller system}}{14}{figure.13}}
\newlabel{f:bode-closed-lead}{{13}{14}{Bode plot of closed loop Lead Controller system}{figure.13}{}}
\@writefile{lof}{\contentsline {figure}{\numberline {14}{\ignorespaces Bode plot of closed loop Lead-Lag Controller system}}{14}{figure.14}}
\newlabel{f:bode-closed-ll}{{14}{14}{Bode plot of closed loop Lead-Lag Controller system}{figure.14}{}}
\@writefile{lof}{\contentsline {figure}{\numberline {15}{\ignorespaces Comparison of various controllers}}{15}{figure.15}}
\newlabel{f:comparison}{{15}{15}{Comparison of various controllers}{figure.15}{}}
