\relax 
\providecommand\hyper@newdestlabel[2]{}
\providecommand\HyperFirstAtBeginDocument{\AtBeginDocument}
\HyperFirstAtBeginDocument{\ifx\hyper@anchor\@undefined
\global\let\oldcontentsline\contentsline
\gdef\contentsline#1#2#3#4{\oldcontentsline{#1}{#2}{#3}}
\global\let\oldnewlabel\newlabel
\gdef\newlabel#1#2{\newlabelxx{#1}#2}
\gdef\newlabelxx#1#2#3#4#5#6{\oldnewlabel{#1}{{#2}{#3}}}
\AtEndDocument{\ifx\hyper@anchor\@undefined
\let\contentsline\oldcontentsline
\let\newlabel\oldnewlabel
\fi}
\fi}
\global\let\hyper@last\relax 
\gdef\HyperFirstAtBeginDocument#1{#1}
\providecommand\HyField@AuxAddToFields[1]{}
\providecommand\HyField@AuxAddToCoFields[2]{}
\@writefile{toc}{\contentsline {section}{\numberline {1}Identification of System Parameters}{1}{section.1}}
\newlabel{eq:tf:1}{{1}{1}{Identification of System Parameters}{equation.1.1}{}}
\newlabel{eq:torque}{{2}{1}{Identification of System Parameters}{equation.1.2}{}}
\newlabel{eq:tf:2}{{3}{1}{Identification of System Parameters}{equation.1.3}{}}
\newlabel{eq:tf:3}{{4}{1}{Identification of System Parameters}{equation.1.4}{}}
\@writefile{lof}{\contentsline {figure}{\numberline {1}{\ignorespaces Schematic of the cart\relax }}{2}{figure.caption.1}}
\providecommand*\caption@xref[2]{\@setref\relax\@undefined{#1}}
\newlabel{fig:cart}{{1}{2}{Schematic of the cart\relax }{figure.caption.1}{}}
\newlabel{eq:tf:4}{{5}{2}{Identification of System Parameters}{equation.1.5}{}}
\newlabel{eq:vb}{{6}{2}{Identification of System Parameters}{equation.1.6}{}}
\newlabel{eq:omega_m}{{7}{2}{Identification of System Parameters}{equation.1.7}{}}
\newlabel{eq:omega_g}{{8}{2}{Identification of System Parameters}{equation.1.8}{}}
\newlabel{eq:vb_true}{{9}{2}{Identification of System Parameters}{equation.1.9}{}}
\newlabel{eq:tf:6}{{10}{2}{Identification of System Parameters}{equation.1.10}{}}
\newlabel{eq:tf:7}{{11}{2}{Identification of System Parameters}{equation.1.11}{}}
\newlabel{eq:tf:9}{{12}{2}{Identification of System Parameters}{equation.1.12}{}}
\@writefile{lof}{\contentsline {figure}{\numberline {2}{\ignorespaces Schematic of the motor circuit\relax }}{3}{figure.caption.2}}
\newlabel{fig:motor}{{2}{3}{Schematic of the motor circuit\relax }{figure.caption.2}{}}
\newlabel{eq:tf:8}{{13}{3}{Identification of System Parameters}{equation.1.13}{}}
\newlabel{eq:tf:10}{{14}{3}{Identification of System Parameters}{equation.1.14}{}}
\newlabel{eq:tf:11}{{15}{3}{Identification of System Parameters}{equation.1.15}{}}
\newlabel{eq:tf:coeff1}{{16}{4}{Identification of System Parameters}{equation.1.16}{}}
\newlabel{eq:tf:11}{{17}{4}{Identification of System Parameters}{equation.1.17}{}}
\newlabel{eq:pos}{{18}{4}{Identification of System Parameters}{equation.1.18}{}}
\newlabel{eq:vel}{{19}{4}{Identification of System Parameters}{equation.1.19}{}}
\@writefile{lof}{\contentsline {figure}{\numberline {3}{\ignorespaces Response to a 2V Square Wave at 1Hz\relax }}{4}{figure.caption.3}}
\newlabel{f:p1:square-response}{{3}{4}{Response to a 2V Square Wave at 1Hz\relax }{figure.caption.3}{}}
\newlabel{eq:tau}{{20}{4}{Identification of System Parameters}{equation.1.20}{}}
\newlabel{eq:p1:tf}{{21}{5}{Identification of System Parameters}{equation.1.21}{}}
\@writefile{lof}{\contentsline {figure}{\numberline {4}{\ignorespaces Comparison of the Step Responses from Theoretical and Experimental Systems\relax }}{5}{figure.caption.4}}
\newlabel{f:p1:step-responses}{{4}{5}{Comparison of the Step Responses from Theoretical and Experimental Systems\relax }{figure.caption.4}{}}
\@writefile{toc}{\contentsline {section}{\numberline {2}Proportional Control}{6}{section.2}}
\@writefile{lof}{\contentsline {figure}{\numberline {5}{\ignorespaces System Diagram of the P-Controller\relax }}{6}{figure.caption.5}}
\newlabel{fig:pcontroller}{{5}{6}{System Diagram of the P-Controller\relax }{figure.caption.5}{}}
\newlabel{eq:pcont:1}{{22}{6}{Proportional Control}{equation.2.22}{}}
\newlabel{eq:pcont:2}{{23}{7}{Proportional Control}{equation.2.23}{}}
\newlabel{eq:pcont:3}{{24}{7}{Proportional Control}{equation.2.24}{}}
\@writefile{lot}{\contentsline {table}{\numberline {1}{\ignorespaces $\omega _n$ and $\zeta $ values for $K_p = 20,100,200$\relax }}{7}{table.caption.6}}
\newlabel{table:kp}{{1}{7}{$\omega _n$ and $\zeta $ values for $K_p = 20,100,200$\relax }{table.caption.6}{}}
\citation{siege_of_Vienna}
\@writefile{lof}{\contentsline {figure}{\numberline {6}{\ignorespaces Step response of P controller for different values of $K_p$\relax }}{8}{figure.caption.7}}
\newlabel{fig:presponse}{{6}{8}{Step response of P controller for different values of $K_p$\relax }{figure.caption.7}{}}
\newlabel{fig:kp_20}{{7a}{8}{$K_p$ = 20\relax }{figure.caption.8}{}}
\newlabel{sub@fig:kp_20}{{a}{8}{$K_p$ = 20\relax }{figure.caption.8}{}}
\newlabel{fig:kp_100}{{7b}{8}{$K_p$ = 100\relax }{figure.caption.8}{}}
\newlabel{sub@fig:kp_100}{{b}{8}{$K_p$ = 100\relax }{figure.caption.8}{}}
\newlabel{fig:kp_200}{{7c}{8}{$K_p$ = 200\relax }{figure.caption.8}{}}
\newlabel{sub@fig:kp_200}{{c}{8}{$K_p$ = 200\relax }{figure.caption.8}{}}
\@writefile{lof}{\contentsline {figure}{\numberline {7}{\ignorespaces Step responses for a 15cm displacement of the cart for different $K_p$\relax }}{8}{figure.caption.8}}
\@writefile{toc}{\contentsline {section}{\numberline {3}Closed-Loop Frequency Response}{9}{section.3}}
\bibcite{siege_of_Vienna}{1}
\@writefile{lot}{\contentsline {table}{\numberline {2}{\ignorespaces Estimated closed-loop frequency response in response to sinusoids of varying frequency\relax }}{10}{table.caption.9}}
\newlabel{t:3:freq-response}{{2}{10}{Estimated closed-loop frequency response in response to sinusoids of varying frequency\relax }{table.caption.9}{}}
\@writefile{lof}{\contentsline {figure}{\numberline {8}{\ignorespaces Frequency response estimate from sinusoidal inputs\relax }}{11}{figure.caption.10}}
\newlabel{f:3:freq-response}{{8}{11}{Frequency response estimate from sinusoidal inputs\relax }{figure.caption.10}{}}
\@writefile{toc}{\contentsline {section}{\numberline {A}Step responses for sinusoidal inputs}{11}{appendix.A}}
\newlabel{app:steps}{{A}{11}{Step responses for sinusoidal inputs}{appendix.A}{}}
\@writefile{lof}{\contentsline {figure}{\numberline {9}{\ignorespaces $K_p = 1$, $f$ = 0.1 rad/s\relax }}{11}{figure.caption.12}}
\newlabel{fig:01_1_rad}{{9}{11}{$K_p = 1$, $f$ = 0.1 rad/s\relax }{figure.caption.12}{}}
\@writefile{lof}{\contentsline {figure}{\numberline {10}{\ignorespaces $K_p = 1$, $f$ = 0.5 rad/s\relax }}{11}{figure.caption.12}}
\newlabel{fig:05_1_rad}{{10}{11}{$K_p = 1$, $f$ = 0.5 rad/s\relax }{figure.caption.12}{}}
\@writefile{lof}{\contentsline {figure}{\numberline {11}{\ignorespaces $K_p = 1$, $f$ = 1 rad/s\relax }}{12}{figure.caption.13}}
\newlabel{fig:1_1_rad}{{11}{12}{$K_p = 1$, $f$ = 1 rad/s\relax }{figure.caption.13}{}}
\@writefile{lof}{\contentsline {figure}{\numberline {12}{\ignorespaces $K_p = 1$, $f$ = 2 rad/s\relax }}{12}{figure.caption.13}}
\newlabel{fig:2_1_rad}{{12}{12}{$K_p = 1$, $f$ = 2 rad/s\relax }{figure.caption.13}{}}
\@writefile{lof}{\contentsline {figure}{\numberline {13}{\ignorespaces $K_p = 1$, $f$ = 5 rad/s\relax }}{12}{figure.caption.14}}
\newlabel{fig:5_1_rad}{{13}{12}{$K_p = 1$, $f$ = 5 rad/s\relax }{figure.caption.14}{}}
\@writefile{lof}{\contentsline {figure}{\numberline {14}{\ignorespaces $K_p = 1$, $f$ = 10 rad/s\relax }}{12}{figure.caption.14}}
\newlabel{fig:10_1_rad}{{14}{12}{$K_p = 1$, $f$ = 10 rad/s\relax }{figure.caption.14}{}}
\@writefile{lof}{\contentsline {figure}{\numberline {15}{\ignorespaces $K_p = 1$, $f$ = 20 rad/s\relax }}{12}{figure.caption.15}}
\newlabel{fig:20_1_rad}{{15}{12}{$K_p = 1$, $f$ = 20 rad/s\relax }{figure.caption.15}{}}
\@writefile{lof}{\contentsline {figure}{\numberline {16}{\ignorespaces $K_p = 1$, $f$ = 30 rad/s\relax }}{12}{figure.caption.15}}
\newlabel{fig:30_1_rad}{{16}{12}{$K_p = 1$, $f$ = 30 rad/s\relax }{figure.caption.15}{}}
\@writefile{lof}{\contentsline {figure}{\numberline {17}{\ignorespaces $K_p$ = 2, $f$ = 0.1 rad/s\relax }}{13}{figure.caption.16}}
\newlabel{fig:01_rad}{{17}{13}{$K_p$ = 2, $f$ = 0.1 rad/s\relax }{figure.caption.16}{}}
\@writefile{lof}{\contentsline {figure}{\numberline {18}{\ignorespaces $K_p$ = 2, $f$ = 0.5 rad/s\relax }}{13}{figure.caption.16}}
\newlabel{fig:05_rad}{{18}{13}{$K_p$ = 2, $f$ = 0.5 rad/s\relax }{figure.caption.16}{}}
\@writefile{lof}{\contentsline {figure}{\numberline {19}{\ignorespaces $K_p$ = 2, $f$ = 1 rad/s\relax }}{13}{figure.caption.17}}
\newlabel{fig:1_rad}{{19}{13}{$K_p$ = 2, $f$ = 1 rad/s\relax }{figure.caption.17}{}}
\@writefile{lof}{\contentsline {figure}{\numberline {20}{\ignorespaces $K_p$ = 2, $f$ = 2 rad/s\relax }}{13}{figure.caption.17}}
\newlabel{fig:2_rad}{{20}{13}{$K_p$ = 2, $f$ = 2 rad/s\relax }{figure.caption.17}{}}
\@writefile{lof}{\contentsline {figure}{\numberline {21}{\ignorespaces $K_p$ = 2, $f$ = 5 rad/s\relax }}{13}{figure.caption.18}}
\newlabel{fig:5_rad}{{21}{13}{$K_p$ = 2, $f$ = 5 rad/s\relax }{figure.caption.18}{}}
\@writefile{lof}{\contentsline {figure}{\numberline {22}{\ignorespaces $K_p$ = 2, $f$ = 10 rad/s\relax }}{13}{figure.caption.18}}
\newlabel{fig:10_rad}{{22}{13}{$K_p$ = 2, $f$ = 10 rad/s\relax }{figure.caption.18}{}}
\@writefile{lof}{\contentsline {figure}{\numberline {23}{\ignorespaces $K_p$ = 2, $f$ = 20 rad/s\relax }}{14}{figure.caption.19}}
\newlabel{fig:20_rad}{{23}{14}{$K_p$ = 2, $f$ = 20 rad/s\relax }{figure.caption.19}{}}
\@writefile{lof}{\contentsline {figure}{\numberline {24}{\ignorespaces $K_p$ = 2, $f$ = 30 rad/s\relax }}{14}{figure.caption.19}}
\newlabel{fig:30_rad}{{24}{14}{$K_p$ = 2, $f$ = 30 rad/s\relax }{figure.caption.19}{}}
