\relax 
\providecommand\hyper@newdestlabel[2]{}
\providecommand\HyperFirstAtBeginDocument{\AtBeginDocument}
\HyperFirstAtBeginDocument{\ifx\hyper@anchor\@undefined
\global\let\oldcontentsline\contentsline
\gdef\contentsline#1#2#3#4{\oldcontentsline{#1}{#2}{#3}}
\global\let\oldnewlabel\newlabel
\gdef\newlabel#1#2{\newlabelxx{#1}#2}
\gdef\newlabelxx#1#2#3#4#5#6{\oldnewlabel{#1}{{#2}{#3}}}
\AtEndDocument{\ifx\hyper@anchor\@undefined
\let\contentsline\oldcontentsline
\let\newlabel\oldnewlabel
\fi}
\fi}
\global\let\hyper@last\relax 
\gdef\HyperFirstAtBeginDocument#1{#1}
\providecommand\HyField@AuxAddToFields[1]{}
\providecommand\HyField@AuxAddToCoFields[2]{}
\@writefile{toc}{\contentsline {chapter}{An Excogitating Exordium}{i}{chapter*.1}}
\@writefile{toc}{\contentsline {part}{I\hspace  {1em}Proportional, Integral, and Derivative Control}{1}{part.1}}
\newlabel{p:pid}{{I}{2}{Proportional, Integral, and Derivative Control}{part.1}{}}
\@writefile{toc}{\contentsline {chapter}{On the Finagling of PID Parameters}{2}{chapter*.6}}
\newlabel{eq:g}{{1}{2}{On the Finagling of PID Parameters}{equation.0.0.1}{}}
\newlabel{eq:pid-form}{{2}{2}{On the Finagling of PID Parameters}{equation.0.0.2}{}}
\newlabel{l:getpid}{{1}{2}{A Matlab function for generating the step response and bode plot given $K_p$, $K_i$, $K_d$}{lstlisting.0.1}{}}
\@writefile{lol}{\contentsline {lstlisting}{\numberline {1}A Matlab function for generating the step response and bode plot given $K_p$, $K_i$, $K_d$}{2}{lstlisting.0.1}}
\@writefile{lof}{\contentsline {figure}{\numberline {1}{\ignorespaces Closed loop step response of PID, PD, and PI Controllers\relax }}{3}{figure.caption.7}}
\providecommand*\caption@xref[2]{\@setref\relax\@undefined{#1}}
\newlabel{fig:loopshaping_step}{{1}{3}{Closed loop step response of PID, PD, and PI Controllers\relax }{figure.caption.7}{}}
\@writefile{lof}{\contentsline {figure}{\numberline {2}{\ignorespaces Closed loop Bode plot of PID, PD, and PI Controllers\relax }}{4}{figure.caption.8}}
\newlabel{fig:loopshaping_bode}{{2}{4}{Closed loop Bode plot of PID, PD, and PI Controllers\relax }{figure.caption.8}{}}
\@writefile{lof}{\contentsline {figure}{\numberline {3}{\ignorespaces PD Controller, $K_P=250, K_D = 13, K_I = 0$\relax }}{5}{figure.caption.9}}
\newlabel{fig:pd}{{3}{5}{PD Controller, $K_P=250, K_D = 13, K_I = 0$\relax }{figure.caption.9}{}}
\@writefile{lof}{\contentsline {figure}{\numberline {4}{\ignorespaces PI Controller, $K_P=250, K_D = 0, K_I = 10$\relax }}{6}{figure.caption.10}}
\newlabel{fig:pi}{{4}{6}{PI Controller, $K_P=250, K_D = 0, K_I = 10$\relax }{figure.caption.10}{}}
\@writefile{lot}{\contentsline {table}{\numberline {1}{\ignorespaces Comparison of experimental PI, PD, and PID controller performance\relax }}{6}{table.caption.12}}
\newlabel{t:pid}{{1}{6}{Comparison of experimental PI, PD, and PID controller performance\relax }{table.caption.12}{}}
\@writefile{lof}{\contentsline {figure}{\numberline {5}{\ignorespaces PID Controller, $K_P=250, K_D = 13, K_I = 10$\relax }}{7}{figure.caption.11}}
\newlabel{fig:pid}{{5}{7}{PID Controller, $K_P=250, K_D = 13, K_I = 10$\relax }{figure.caption.11}{}}
\@writefile{toc}{\contentsline {chapter}{Designing a PID Controller to Meet Harsh Specifications}{8}{chapter*.13}}
\@writefile{lof}{\contentsline {figure}{\numberline {6}{\ignorespaces PID Controller meeting design specifications\relax }}{9}{figure.caption.14}}
\newlabel{fig:1:d}{{6}{9}{PID Controller meeting design specifications\relax }{figure.caption.14}{}}
\@writefile{toc}{\contentsline {part}{II\hspace  {1em}Lead-Lag Control}{10}{part.2}}
\newlabel{p:leadlag}{{II}{11}{Lead-Lag Control}{part.2}{}}
\@writefile{toc}{\contentsline {chapter}{On the Design of a Garden-Variety Lead Controller}{11}{chapter*.15}}
\newlabel{eq:lead}{{3}{11}{On the Design of a Garden-Variety Lead Controller}{equation.0.0.3}{}}
\newlabel{eq:wc}{{4}{11}{On the Design of a Garden-Variety Lead Controller}{equation.0.0.4}{}}
\newlabel{eq:philead}{{5}{11}{On the Design of a Garden-Variety Lead Controller}{equation.0.0.5}{}}
\newlabel{eq:alpha}{{6}{11}{On the Design of a Garden-Variety Lead Controller}{equation.0.0.6}{}}
\newlabel{l:getlead}{{2}{11}{A Matlab function for creating lead controllers given $\omega _c$}{lstlisting.0.2}{}}
\@writefile{lol}{\contentsline {lstlisting}{\numberline {2}A Matlab function for creating lead controllers given $\omega _c$}{11}{lstlisting.0.2}}
\newlabel{l:genleads}{{3}{12}{A Matlab function for generating and evaluating many lead controller}{lstlisting.0.3}{}}
\@writefile{lol}{\contentsline {lstlisting}{\numberline {3}A Matlab function for generating and evaluating many lead controller}{12}{lstlisting.0.3}}
\@writefile{lof}{\contentsline {figure}{\numberline {7}{\ignorespaces Comparison of Lead Controllers by $\omega _c$\relax }}{12}{figure.caption.16}}
\newlabel{fig:bunch-of-leads}{{7}{12}{Comparison of Lead Controllers by $\omega _c$\relax }{figure.caption.16}{}}
\@writefile{lof}{\contentsline {figure}{\numberline {8}{\ignorespaces Design of Lead Controller with $60\ensuremath  {^\circ }$ Phase Margin\relax }}{13}{figure.caption.17}}
\newlabel{fig:lead:theoretical}{{8}{13}{Design of Lead Controller with $60\degree $ Phase Margin\relax }{figure.caption.17}{}}
\@writefile{lof}{\contentsline {figure}{\numberline {9}{\ignorespaces Step response of P controllers from lab 2 with values of $K_p$ = (20,100,200)\relax }}{14}{figure.caption.18}}
\newlabel{fig:lab2_controllers}{{9}{14}{Step response of P controllers from lab 2 with values of $K_p$ = (20,100,200)\relax }{figure.caption.18}{}}
\@writefile{toc}{\contentsline {chapter}{Experimental Performance of the Lead Controller}{15}{chapter*.19}}
\@writefile{lof}{\contentsline {figure}{\numberline {10}{\ignorespaces Experimental Performance of the Lead Controller with $\omega _c=32$rad/s\relax }}{15}{figure.caption.20}}
\newlabel{fig:lead:experimental}{{10}{15}{Experimental Performance of the Lead Controller with $\omega _c=32$rad/s\relax }{figure.caption.20}{}}
\@writefile{toc}{\contentsline {chapter}{Adding a Lag Compensator to the Lead Controller of Yesteryear}{16}{chapter*.21}}
\@writefile{lof}{\contentsline {figure}{\numberline {11}{\ignorespaces Steady-State Error of Lead Controller Undergoing Ramp Input\relax }}{16}{figure.caption.22}}
\newlabel{fig:lead:ramp:theoretical}{{11}{16}{Steady-State Error of Lead Controller Undergoing Ramp Input\relax }{figure.caption.22}{}}
\newlabel{eq:lag}{{7}{16}{Adding a Lag Compensator to the Lead Controller of Yesteryear}{equation.0.0.7}{}}
\newlabel{eq:sensitivity}{{8}{17}{Adding a Lag Compensator to the Lead Controller of Yesteryear}{equation.0.0.8}{}}
\newlabel{l:getlag}{{4}{17}{Code for generating Lag controllers}{lstlisting.0.4}{}}
\@writefile{lol}{\contentsline {lstlisting}{\numberline {4}Code for generating Lag controllers}{17}{lstlisting.0.4}}
\@writefile{lof}{\contentsline {figure}{\numberline {12}{\ignorespaces Bode Plot of Open Loop Lead-Lag System\relax }}{18}{figure.caption.23}}
\newlabel{fig:leadlag:bode}{{12}{18}{Bode Plot of Open Loop Lead-Lag System\relax }{figure.caption.23}{}}
\@writefile{lof}{\contentsline {figure}{\numberline {13}{\ignorespaces Step Response of Lead-Lag System with 20cm Step\relax }}{18}{figure.caption.24}}
\newlabel{fig:leadlag:step:theoretical}{{13}{18}{Step Response of Lead-Lag System with 20cm Step\relax }{figure.caption.24}{}}
\@writefile{lof}{\contentsline {figure}{\numberline {14}{\ignorespaces Ramp Response of Lead-Lag System\relax }}{19}{figure.caption.25}}
\newlabel{fig:leadlag:ramp:theoretical}{{14}{19}{Ramp Response of Lead-Lag System\relax }{figure.caption.25}{}}
\@writefile{toc}{\contentsline {chapter}{Experimental Observations of the Lead-Lag Controller}{20}{chapter*.26}}
\@writefile{lof}{\contentsline {figure}{\numberline {15}{\ignorespaces Experimental Behavior of the Lead-Lag Controller\relax }}{20}{figure.caption.27}}
\newlabel{fig:leadlag:experimental}{{15}{20}{Experimental Behavior of the Lead-Lag Controller\relax }{figure.caption.27}{}}
\@writefile{lot}{\contentsline {table}{\numberline {2}{\ignorespaces Comparison of experimental controller performance\relax }}{21}{table.caption.29}}
\newlabel{t:comparison}{{2}{21}{Comparison of experimental controller performance\relax }{table.caption.29}{}}
